{
  "api": {
    "apiservice": {
      "serviceUrl": "http://192.168.1.7/inspire_it_solutions/",
      "apiEnpoint": "api/employee/",
      "imageEndPoint": "images/",
      "GetAppInfo": "app_config",
      "UserLogin": "emp_login",
      "ServiceList": "view_service_book_details",
      "MemberList": "view_all_employee",
      "UpdateServiceStatus": "update_service_status",
      "FCMUpdate": "update_fcm_id",
      "CommentList": "view_service_status_comments",
      "AddComment": "add_comments",
      "UpdateEmployeeLocation": "add_employee_location",
      "AnnulServiceList": "view_annual_service_booking",
      "ForgotPassword": "forget_password",
      "CheckExistingCustomer": "check_existing_customer",
      "AddGeneralService":"add_service_booking",
      "CheckValidSubscription": "check_valid_subscription_id",
      "AddAMCService": "add_annual_service_booking"
    },
    "apikey": {
      "access_token": "72a57f585e0b42cf8e66930c4318d006",
      "user_agent": "AmericanEagle-Android",
      "newrelic": "AA4e79e4ace100a38bc85a36274eb8bfe633bd33bc",
      "card_io": "8b41693a251c4a639e55c58cb1a53601"
    },
    "googleAPIService": {
      "default_navigation": "https://maps.google.com/maps?saddr=",
      "geocoder_latlng": "https://maps.googleapis.com/maps/api/geocode/json?latlng=",
      "getcoder_address": "https://maps.googleapis.com/maps/api/geocode/json?address="
    }
  }
}